a5 - Branching Operations/cpu_tb.vcd
$date
	Sun Oct 18 00:18:10 2020
$end
$version
	Icarus Verilog
$end
$timescale
	1ps
$end
$scope module cpu_tb $end
$var wire 32 ! idata [31:0] $end
$var wire 32 " iaddr [31:0] $end
$var wire 4 # dwe [3:0] $end
$var wire 32 $ dwdata [31:0] $end
$var wire 32 % drdata [31:0] $end
$var wire 32 & daddr [31:0] $end
$var reg 1 ' clk $end
$var reg 32 ( dtmp [31:0] $end
$var reg 32 ) exp_reg [31:0] $end
$var reg 1 * reset $end
$var integer 32 + exp_file [31:0] $end
$var integer 32 , fail [31:0] $end
$var integer 32 - i [31:0] $end
$var integer 32 . log_file [31:0] $end
$var integer 32 / s [31:0] $end
$scope module u1 $end
$var wire 32 0 alu_in1 [31:0] $end
$var wire 1 ' clk $end
$var wire 1 * reset $end
$var wire 32 1 u_immediate [31:0] $end
$var wire 12 2 s_offset [11:0] $end
$var wire 32 3 rv3 [31:0] $end
$var wire 32 4 rv2 [31:0] $end
$var wire 32 5 rv1 [31:0] $end
$var wire 5 6 rs2 [4:0] $end
$var wire 5 7 rs1 [4:0] $end
$var wire 1 8 reg_we $end
$var wire 5 9 reg_dest [4:0] $end
$var wire 32 : reg_data [31:0] $end
$var wire 5 ; rd [4:0] $end
$var wire 7 < opcode [6:0] $end
$var wire 5 = mem_addr [4:0] $end
$var wire 12 > m_offset [11:0] $end
$var wire 20 ? j_offset [19:0] $end
$var wire 32 @ j_dest [31:0] $end
$var wire 12 A immediate [11:0] $end
$var wire 32 B idata [31:0] $end
$var wire 32 C iaddr_new [31:0] $end
$var wire 3 D func3 [2:0] $end
$var wire 4 E dwe [3:0] $end
$var wire 32 F dwdata [31:0] $end
$var wire 32 G drdata [31:0] $end
$var wire 32 H daddr [31:0] $end
$var wire 32 I buff_in [31:0] $end
$var wire 32 J b_offset [31:0] $end
$var wire 32 K b_imm [31:0] $end
$var wire 32 L alu_out [31:0] $end
$var wire 32 M alu_in2 [31:0] $end
$var wire 12 N alu_imm [11:0] $end
$var reg 6 O alu_opcode [5:0] $end
$var reg 32 P buff_out [31:0] $end
$var reg 32 Q iaddr [31:0] $end
$var reg 5 R opflag [4:0] $end
$scope module i1 $end
$var wire 6 S op [5:0] $end
$var wire 32 T rv1 [31:0] $end
$var wire 32 U rv2 [31:0] $end
$var wire 32 V rvout [31:0] $end
$var reg 32 W alu_out [31:0] $end
$upscope $end
$scope module i2 $end
$var wire 1 ' clk $end
$var wire 5 X rd [4:0] $end
$var wire 5 Y rs1 [4:0] $end
$var wire 5 Z rs2 [4:0] $end
$var wire 5 [ rs3 [4:0] $end
$var wire 32 \ rv1 [31:0] $end
$var wire 32 ] rv2 [31:0] $end
$var wire 32 ^ rv3 [31:0] $end
$var wire 32 _ wdata [31:0] $end
$var wire 1 ` we $end
$var integer 32 a i [31:0] $end
$upscope $end
$upscope $end
$scope module u2 $end
$var wire 32 b iaddr [31:0] $end
$var wire 32 c idata [31:0] $end
$upscope $end
$scope module u3 $end
$var wire 1 ' clk $end
$var wire 32 d daddr [31:0] $end
$var wire 32 e dwdata [31:0] $end
$var wire 4 f dwe [3:0] $end
$var wire 32 g drdata [31:0] $end
$var wire 30 h a [29:0] $end
$upscope $end
$upscope $end
$enddefinitions $end
#0
$dumpvars
b111 h
b0 g
b0 f
b0 e
b11111 d
b100000000111110010011 c
b0 b
b100000 a
0`
b1 _
b0 ^
b0 ]
b0 \
b1 [
b1 Z
b0 Y
b11111 X
b1 W
b1 V
b1 U
b0 T
b1 S
b10 R
b0 Q
b0 P
b1 O
b1 N
b1 M
b1 L
b100000011110 K
b100000011110 J
b0 I
b11111 H
b0 G
b0 F
b0 E
b0 D
b100 C
b100000000111110010011 B
b1 A
b1 @
b100000000000 ?
b11111 >
b1 =
b10011 <
b11111 ;
b1 :
b11111 9
18
b0 7
b1 6
b0 5
b0 4
b0 3
b11111 2
b100000000000000000000 1
b0 0
bx /
bx .
bx -
bx ,
bx +
1*
bx )
bx (
1'
b11111 &
b0 %
b0 $
b0 #
b0 "
b100000000111110010011 !
$end
#5000
0'
#10000
1'
#15000
0'
#20000
1'
#25000
0'
#30000
1'
#35000
0'
#40000
1'
#45000
0'
#50000
1'
#55000
0'
#60000
1'
#65000
0'
#70000
1'
#75000
0'
#80000
1'
#85000
0'
#90000
1'
#95000
0'
#100000
b100 :
b100 _
b100 L
b100 V
b100 W
b0 h
b10 J
b100 M
b100 U
b1000 C
b10 &
b10 H
b10 d
b10 >
b100 ?
b10 K
b10 9
b10 X
b100 =
b100 [
b100 N
b10 2
b10 ;
b100 6
b100 Z
b100 @
b10000000000000000000000 1
b100 A
b10000000000000100010011 !
b10000000000000100010011 B
b10000000000000100010011 c
b100 "
b100 Q
b100 b
b0 -
1`
1'
b10000000000000000000000000000100 +
b10000000000000000000000000000011 .
0*
#105000
0'
#110000
b1 h
b100 0
b100 T
b100 5
b100 \
b111 :
b111 _
b100 J
b111 L
b111 V
b111 W
b11 M
b11 U
b1100 C
b101 &
b101 H
b101 d
b1 >
b10100100000000010 ?
b100000000000 K
b1 9
b1 X
b101 O
b101 S
b11 =
b11 [
b11 N
b1 2
b1 ;
b100 D
b10 7
b10 Y
b11 6
b11 Z
b111 @
b1100010100000000000000 1
b11 A
b1100010100000010010011 !
b1100010100000010010011 B
b1100010100000010010011 c
b1 -
b1000 "
b1000 Q
b1000 b
1'
#115000
0'
#120000
0`
08
b0 :
b0 _
b100 M
b100 U
b10000 C
b100100 >
b1000000000100010 ?
b100100 K
b11 R
b100 9
b100 X
b1 O
b1 S
b1010 h
b1011 L
b1011 V
b1011 W
b100 3
b100 ^
b10 =
b10 [
b100010 N
b100100 2
b1100011 <
b100 ;
b0 D
b101011 &
b101011 H
b101011 d
b111 0
b111 T
b111 5
b111 \
b1 7
b1 Y
b100 4
b100 ]
b10 6
b10 Z
b101001 @
b10001000001000000000000000 1
b100010 A
b10001000001000001001100011 !
b10001000001000001001100011 B
b10001000001000001001100011 c
b1100 "
b1100 Q
b1100 b
b10 -
1'
#125000
0'
#130000
b10000 J
b101 h
b11 L
b11 V
b11 W
b10000 >
b10100100000000000 ?
b10000 K
b10000 9
b10000 X
b101 O
b101 S
b111 3
b111 ^
b1 =
b1 [
b111 M
b111 U
b1 N
b10000 2
b10000 ;
b100 D
b10100 &
b10100 H
b10100 d
b100 0
b100 T
b100 5
b100 \
b10 7
b10 Y
b111 4
b111 ]
b1 6
b1 Z
b101 @
b100010100000000000000 1
b1 A
b100000 C
b100010100100001100011 !
b100010100100001100011 B
b100010100100001100011 c
b11 -
b10000 "
b10000 Q
b10000 b
1'
#135000
0'
#140000
1`
18
b100000000010 J
b11 >
b0 ?
b100000000010 K
b1 R
b11 9
b11 X
b1 O
b1 S
b0 h
b0 L
b0 V
b0 W
b0 3
b0 ^
b0 =
b0 [
b0 M
b0 U
b0 N
b11 2
b110011 <
b11 ;
b0 D
b11 &
b11 H
b11 d
b0 0
b0 T
b0 5
b0 \
b0 7
b0 Y
b0 4
b0 ]
b0 6
b0 Z
b0 @
b0 1
b0 A
b100100 C
b110110011 !
b110110011 B
b110110011 c
b100000 "
b100000 Q
b100000 b
b100 -
1'
#145000
0'
#150000
0`
08
b1011 :
b1011 _
b100 J
b101000 C
b0 >
b10000100000000000 ?
b0 K
b0 9
b0 X
b1 h
b1011 L
b1011 V
b1011 W
b111 3
b111 ^
b1 =
b1 [
b111 M
b111 U
b1 N
b0 2
b0 ;
b100 &
b100 H
b100 d
b100 0
b100 T
b100 5
b100 \
b10 7
b10 Y
b111 4
b111 ]
b1 6
b1 Z
b101 @
b100010000000000000000 1
b1 A
b100010000000000110011 !
b100010000000000110011 B
b100010000000000110011 c
b101 -
b100100 "
b100100 Q
b100100 b
1'
#155000
0'
#160000
b0 :
b0 _
b101100 C
b1000 >
b1100000000010 ?
b1000 K
b11 R
b1000 9
b1000 X
b1000 O
b1000 S
b10 h
b0 L
b0 V
b0 W
b0 3
b0 ^
b11 =
b11 [
b0 M
b0 U
b11 N
b1000 2
b1100011 <
b1000 ;
b1 D
b1000 &
b1000 H
b1000 d
b0 0
b0 T
b0 5
b0 \
b0 7
b0 Y
b0 4
b0 ]
b11 6
b11 Z
b11 @
b1100000001000000000000 1
b11 A
b1100000001010001100011 !
b1100000001010001100011 B
b1100000001010001100011 c
b101000 "
b101000 Q
b101000 b
b110 -
1'
#165000
0'
#170000
b1000 J
b11101000000000000 ?
b1001 O
b1001 S
b0 N
b0 =
b0 [
b101 D
b11 7
b11 Y
b0 6
b0 Z
b0 @
b11101000000000000 1
b0 A
b110100 C
b11101010001100011 !
b11101010001100011 B
b11101010001100011 c
b111 -
b101100 "
b101100 Q
b101100 b
1'
#175000
0'
#180000
b0 h
b0 J
b0 &
b0 H
b0 d
b0 >
b0 ?
b0 K
b0 R
b0 9
b0 X
b1 O
b1 S
b0 2
b0 <
b0 ;
b0 D
b0 1
b0 7
b0 Y
b111000 C
b0 !
b0 B
b0 c
b110100 "
b110100 Q
b110100 b
b1000 -
1'
#185000
0'
#190000
b111100 C
b1001 -
b111000 "
b111000 Q
b111000 b
1'
#195000
0'
#200000
b1000000 C
b111100 "
b111100 Q
b111100 b
b1010 -
1'
#205000
0'
#210000
b1000100 C
b1011 -
b1000000 "
b1000000 Q
b1000000 b
1'
#215000
0'
#220000
b1001000 C
b1000100 "
b1000100 Q
b1000100 b
b1100 -
1'
#225000
0'
#230000
b1001100 C
b1101 -
b1001000 "
b1001000 Q
b1001000 b
1'
#235000
0'
#240000
b1010000 C
b1001100 "
b1001100 Q
b1001100 b
b1110 -
1'
#245000
0'
#250000
b1010100 C
b1111 -
b1010000 "
b1010000 Q
b1010000 b
1'
#255000
0'
#260000
b1011000 C
b1010100 "
b1010100 Q
b1010100 b
b10000 -
1'
#265000
0'
#270000
b1011100 C
b10001 -
b1011000 "
b1011000 Q
b1011000 b
1'
#275000
0'
#280000
b1100000 C
b1011100 "
b1011100 Q
b1011100 b
b10010 -
1'
#285000
0'
#290000
b1111 #
b1111 E
b1111 f
b100 J
b1100100 C
b10000000000000 ?
b1001 R
b110 O
b110 S
b100011 <
b10000000000000 1
b10 D
b10000000100011 !
b10000000100011 B
b10000000100011 c
b10011 -
b1100000 "
b1100000 Q
b1100000 b
1'
#295000
0'
#300000
b111 $
b111 F
b111 e
b111 P
b1 h
b111 I
b1 L
b1 V
b1 W
b1101000 C
b100 &
b100 H
b100 d
b100 >
b10100000000000 ?
b100 K
b100 9
b100 X
b111 3
b111 ^
b1 =
b1 [
b111 M
b111 U
b1 N
b100 2
b100 ;
b111 4
b111 ]
b1 6
b1 Z
b1 @
b100000010000000000000 1
b1 A
b100000010001000100011 !
b100000010001000100011 B
b100000010001000100011 c
b1100100 "
b1100100 Q
b1100100 b
b10100 -
1'
#305000
0'
#310000
b100 $
b100 F
b100 e
b100 P
b10 h
b100 I
b1101100 C
b1000 &
b1000 H
b1000 d
b1000 >
b10000000000010 ?
b1000 K
b1000 9
b1000 X
b100 3
b100 ^
b10 =
b10 [
b100 M
b100 U
b10 N
b1000 2
b1000 ;
b100 4
b100 ]
b10 6
b10 Z
b10 @
b1000000010000000000000 1
b10 A
b1000000010010000100011 !
b1000000010010000100011 B
b1000000010010000100011 c
b10101 -
b0 %
b0 G
b0 g
b1101000 "
b1101000 Q
b1101000 b
1'
#315000
0'
#320000
b0 $
b0 F
b0 e
b0 P
b11 h
b0 I
b0 L
b0 V
b0 W
b1110000 C
b1100 &
b1100 H
b1100 d
b1100 >
b10100000000010 ?
b1100 K
b1100 9
b1100 X
b0 3
b0 ^
b11 =
b11 [
b0 M
b0 U
b11 N
b1100 2
b1100 ;
b0 4
b0 ]
b11 6
b11 Z
b11 @
b1100000010000000000000 1
b11 A
b1100000010011000100011 !
b1100000010011000100011 B
b1100000010011000100011 c
b1101100 "
b1101100 Q
b1101100 b
b0 %
b0 G
b0 g
b10110 -
1'
#325000
0'
#330000
b100 h
b1110100 C
b10000 &
b10000 H
b10000 d
b10000 >
b10000000000100 ?
b10000 K
b10000 9
b10000 X
b100 =
b100 [
b100 N
b10000 2
b10000 ;
b100 6
b100 Z
b100 @
b10000000010000000000000 1
b100 A
b10000000010100000100011 !
b10000000010100000100011 B
b10000000010100000100011 c
b10111 -
b1110000 "
b1110000 Q
b1110000 b
1'
#335000
0'
#340000
b101 h
b1111000 C
b10100 &
b10100 H
b10100 d
b10100 >
b10100000000100 ?
b10100 K
b10100 9
b10100 X
b101 =
b101 [
b101 N
b10100 2
b10100 ;
b101 6
b101 Z
b101 @
b10100000010000000000000 1
b101 A
b10100000010101000100011 !
b10100000010101000100011 B
b10100000010101000100011 c
b1110100 "
b1110100 Q
b1110100 b
b11000 -
1'
#345000
0'
#350000
b110 h
b1111100 C
b11000 &
b11000 H
b11000 d
b11000 >
b10000000000110 ?
b11000 K
b11000 9
b11000 X
b110 =
b110 [
b110 N
b11000 2
b11000 ;
b110 6
b110 Z
b110 @
b11000000010000000000000 1
b110 A
b11000000010110000100011 !
b11000000010110000100011 B
b11000000010110000100011 c
b11001 -
b1111000 "
b1111000 Q
b1111000 b
1'
#355000
0'
#360000
b111 h
b10000000 C
b11100 &
b11100 H
b11100 d
b11100 >
b10100000000110 ?
b11100 K
b11100 9
b11100 X
b111 =
b111 [
b111 N
b11100 2
b11100 ;
b111 6
b111 Z
b111 @
b11100000010000000000000 1
b111 A
b11100000010111000100011 !
b11100000010111000100011 B
b11100000010111000100011 c
b1111100 "
b1111100 Q
b1111100 b
b11010 -
1'
#365000
0'
#370000
b1000 h
b10000100 C
b100000 &
b100000 H
b100000 d
b100000 >
b10000000101000 ?
b100000 K
b0 9
b0 X
b1000 =
b1000 [
b101000 N
b100000 2
b0 ;
b1000 6
b1000 Z
b101000 @
b10100000000010000000000000 1
b101000 A
b10100000000010000000100011 !
b10100000000010000000100011 B
b10100000000010000000100011 c
b11011 -
b10000000 "
b10000000 Q
b10000000 b
1'
#375000
0'
#380000
b1001 h
b10001000 C
b100100 &
b100100 H
b100100 d
b100100 >
b10100000101000 ?
b100100 K
b100 9
b100 X
b1001 =
b1001 [
b101001 N
b100100 2
b100 ;
b1001 6
b1001 Z
b101001 @
b10100100000010000000000000 1
b101001 A
b10100100000010001000100011 !
b10100100000010001000100011 B
b10100100000010001000100011 c
b10000100 "
b10000100 Q
b10000100 b
b11100 -
1'
#385000
0'
#390000
b1010 h
b10001100 C
b101000 &
b101000 H
b101000 d
b101000 >
b10000000101010 ?
b101000 K
b1000 9
b1000 X
b1010 =
b1010 [
b101010 N
b101000 2
b1000 ;
b1010 6
b1010 Z
b101010 @
b10101000000010000000000000 1
b101010 A
b10101000000010010000100011 !
b10101000000010010000100011 B
b10101000000010010000100011 c
b11101 -
b10001000 "
b10001000 Q
b10001000 b
1'
#395000
0'
#400000
b1011 h
b10010000 C
b101100 &
b101100 H
b101100 d
b101100 >
b10100000101010 ?
b101100 K
b1100 9
b1100 X
b1011 =
b1011 [
b101011 N
b101100 2
b1100 ;
b1011 6
b1011 Z
b101011 @
b10101100000010000000000000 1
b101011 A
b10101100000010011000100011 !
b10101100000010011000100011 B
b10101100000010011000100011 c
b10001100 "
b10001100 Q
b10001100 b
b11110 -
1'
#405000
0'
#410000
b1100 h
b10010100 C
b110000 &
b110000 H
b110000 d
b110000 >
b10000000101100 ?
b110000 K
b10000 9
b10000 X
b1100 =
b1100 [
b101100 N
b110000 2
b10000 ;
b1100 6
b1100 Z
b101100 @
b10110000000010000000000000 1
b101100 A
b10110000000010100000100011 !
b10110000000010100000100011 B
b10110000000010100000100011 c
b11111 -
b10010000 "
b10010000 Q
b10010000 b
1'
#415000
0'
#420000
b1101 h
b10011000 C
b110100 &
b110100 H
b110100 d
b110100 >
b10100000101100 ?
b110100 K
b10100 9
b10100 X
b1101 =
b1101 [
b101101 N
b110100 2
b10100 ;
b1101 6
b1101 Z
b101101 @
b10110100000010000000000000 1
b101101 A
b10110100000010101000100011 !
b10110100000010101000100011 B
b10110100000010101000100011 c
b10010100 "
b10010100 Q
b10010100 b
b100000 -
1'
#425000
0'
#430000
b1110 h
b10011100 C
b111000 &
b111000 H
b111000 d
b111000 >
b10000000101110 ?
b111000 K
b11000 9
b11000 X
b1110 =
b1110 [
b101110 N
b111000 2
b11000 ;
b1110 6
b1110 Z
b101110 @
b10111000000010000000000000 1
b101110 A
b10111000000010110000100011 !
b10111000000010110000100011 B
b10111000000010110000100011 c
b100001 -
b10011000 "
b10011000 Q
b10011000 b
1'
#435000
0'
#440000
b1111 h
b10100000 C
b111100 &
b111100 H
b111100 d
b111100 >
b10100000101110 ?
b111100 K
b11100 9
b11100 X
b1111 =
b1111 [
b101111 N
b111100 2
b11100 ;
b1111 6
b1111 Z
b101111 @
b10111100000010000000000000 1
b101111 A
b10111100000010111000100011 !
b10111100000010111000100011 B
b10111100000010111000100011 c
b10011100 "
b10011100 Q
b10011100 b
b100010 -
1'
#445000
0'
#450000
b10000 h
b10100100 C
b1000000 &
b1000000 H
b1000000 d
b1000000 >
b10000001010000 ?
b1000000 K
b0 9
b0 X
b10000 =
b10000 [
b1010000 N
b1000000 2
b0 ;
b10000 6
b10000 Z
b1010000 @
b101000000000010000000000000 1
b1010000 A
b101000000000010000000100011 !
b101000000000010000000100011 B
b101000000000010000000100011 c
b100011 -
b10100000 "
b10100000 Q
b10100000 b
1'
#455000
0'
#460000
b10001 h
b10101000 C
b1000100 &
b1000100 H
b1000100 d
b1000100 >
b10100001010000 ?
b1000100 K
b100 9
b100 X
b10001 =
b10001 [
b1010001 N
b1000100 2
b100 ;
b10001 6
b10001 Z
b1010001 @
b101000100000010000000000000 1
b1010001 A
b101000100000010001000100011 !
b101000100000010001000100011 B
b101000100000010001000100011 c
b10100100 "
b10100100 Q
b10100100 b
b100100 -
1'
#465000
0'
#470000
b10010 h
b10101100 C
b1001000 &
b1001000 H
b1001000 d
b1001000 >
b10000001010010 ?
b1001000 K
b1000 9
b1000 X
b10010 =
b10010 [
b1010010 N
b1001000 2
b1000 ;
b10010 6
b10010 Z
b1010010 @
b101001000000010000000000000 1
b1010010 A
b101001000000010010000100011 !
b101001000000010010000100011 B
b101001000000010010000100011 c
b100101 -
b10101000 "
b10101000 Q
b10101000 b
1'
#475000
0'
#480000
b10011 h
b10110000 C
b1001100 &
b1001100 H
b1001100 d
b1001100 >
b10100001010010 ?
b1001100 K
b1100 9
b1100 X
b10011 =
b10011 [
b1010011 N
b1001100 2
b1100 ;
b10011 6
b10011 Z
b1010011 @
b101001100000010000000000000 1
b1010011 A
b101001100000010011000100011 !
b101001100000010011000100011 B
b101001100000010011000100011 c
b10101100 "
b10101100 Q
b10101100 b
b100110 -
1'
#485000
0'
#490000
b10100 h
b10110100 C
b1010000 &
b1010000 H
b1010000 d
b1010000 >
b10000001010100 ?
b1010000 K
b10000 9
b10000 X
b10100 =
b10100 [
b1010100 N
b1010000 2
b10000 ;
b10100 6
b10100 Z
b1010100 @
b101010000000010000000000000 1
b1010100 A
b101010000000010100000100011 !
b101010000000010100000100011 B
b101010000000010100000100011 c
b100111 -
b10110000 "
b10110000 Q
b10110000 b
1'
#495000
0'
#500000
b10101 h
b10111000 C
b1010100 &
b1010100 H
b1010100 d
b1010100 >
b10100001010100 ?
b1010100 K
b10100 9
b10100 X
b10101 =
b10101 [
b1010101 N
b1010100 2
b10100 ;
b10101 6
b10101 Z
b1010101 @
b101010100000010000000000000 1
b1010101 A
b101010100000010101000100011 !
b101010100000010101000100011 B
b101010100000010101000100011 c
b10110100 "
b10110100 Q
b10110100 b
b101000 -
1'
#505000
0'
#510000
b10110 h
b10111100 C
b1011000 &
b1011000 H
b1011000 d
b1011000 >
b10000001010110 ?
b1011000 K
b11000 9
b11000 X
b10110 =
b10110 [
b1010110 N
b1011000 2
b11000 ;
b10110 6
b10110 Z
b1010110 @
b101011000000010000000000000 1
b1010110 A
b101011000000010110000100011 !
b101011000000010110000100011 B
b101011000000010110000100011 c
b101001 -
b10111000 "
b10111000 Q
b10111000 b
1'
#515000
0'
#520000
b10111 h
b11000000 C
b1011100 &
b1011100 H
b1011100 d
b1011100 >
b10100001010110 ?
b1011100 K
b11100 9
b11100 X
b10111 =
b10111 [
b1010111 N
b1011100 2
b11100 ;
b10111 6
b10111 Z
b1010111 @
b101011100000010000000000000 1
b1010111 A
b101011100000010111000100011 !
b101011100000010111000100011 B
b101011100000010111000100011 c
b10111100 "
b10111100 Q
b10111100 b
b101010 -
1'
#525000
0'
#530000
b11000 h
b11000100 C
b1100000 &
b1100000 H
b1100000 d
b1100000 >
b10000001111000 ?
b1100000 K
b0 9
b0 X
b11000 =
b11000 [
b1111000 N
b1100000 2
b0 ;
b11000 6
b11000 Z
b1111000 @
b111100000000010000000000000 1
b1111000 A
b111100000000010000000100011 !
b111100000000010000000100011 B
b111100000000010000000100011 c
b101011 -
b11000000 "
b11000000 Q
b11000000 b
1'
#535000
0'
#540000
b11001 h
b11001000 C
b1100100 &
b1100100 H
b1100100 d
b1100100 >
b10100001111000 ?
b1100100 K
b100 9
b100 X
b11001 =
b11001 [
b1111001 N
b1100100 2
b100 ;
b11001 6
b11001 Z
b1111001 @
b111100100000010000000000000 1
b1111001 A
b111100100000010001000100011 !
b111100100000010001000100011 B
b111100100000010001000100011 c
b11000100 "
b11000100 Q
b11000100 b
b101100 -
1'
#545000
0'
#550000
b11010 h
b11001100 C
b1101000 &
b1101000 H
b1101000 d
b1101000 >
b10000001111010 ?
b1101000 K
b1000 9
b1000 X
b11010 =
b11010 [
b1111010 N
b1101000 2
b1000 ;
b11010 6
b11010 Z
b1111010 @
b111101000000010000000000000 1
b1111010 A
b111101000000010010000100011 !
b111101000000010010000100011 B
b111101000000010010000100011 c
b101101 -
b11001000 "
b11001000 Q
b11001000 b
1'
#555000
0'
#560000
b11011 h
b11010000 C
b1101100 &
b1101100 H
b1101100 d
b1101100 >
b10100001111010 ?
b1101100 K
b1100 9
b1100 X
b11011 =
b11011 [
b1111011 N
b1101100 2
b1100 ;
b11011 6
b11011 Z
b1111011 @
b111101100000010000000000000 1
b1111011 A
b111101100000010011000100011 !
b111101100000010011000100011 B
b111101100000010011000100011 c
b11001100 "
b11001100 Q
b11001100 b
b101110 -
1'
#565000
0'
#570000
b11100 h
b11010100 C
b1110000 &
b1110000 H
b1110000 d
b1110000 >
b10000001111100 ?
b1110000 K
b10000 9
b10000 X
b11100 =
b11100 [
b1111100 N
b1110000 2
b10000 ;
b11100 6
b11100 Z
b1111100 @
b111110000000010000000000000 1
b1111100 A
b111110000000010100000100011 !
b111110000000010100000100011 B
b111110000000010100000100011 c
b101111 -
b11010000 "
b11010000 Q
b11010000 b
1'
#575000
0'
#580000
b11101 h
b11011000 C
b1110100 &
b1110100 H
b1110100 d
b1110100 >
b10100001111100 ?
b1110100 K
b10100 9
b10100 X
b11101 =
b11101 [
b1111101 N
b1110100 2
b10100 ;
b11101 6
b11101 Z
b1111101 @
b111110100000010000000000000 1
b1111101 A
b111110100000010101000100011 !
b111110100000010101000100011 B
b111110100000010101000100011 c
b11010100 "
b11010100 Q
b11010100 b
b110000 -
1'
#585000
0'
#590000
b11110 h
b11011100 C
b1111000 &
b1111000 H
b1111000 d
b1111000 >
b10000001111110 ?
b1111000 K
b11000 9
b11000 X
b11110 =
b11110 [
b1111110 N
b1111000 2
b11000 ;
b11110 6
b11110 Z
b1111110 @
b111111000000010000000000000 1
b1111110 A
b111111000000010110000100011 !
b111111000000010110000100011 B
b111111000000010110000100011 c
b110001 -
b11011000 "
b11011000 Q
b11011000 b
1'
#595000
0'
#600000
b1 $
b1 F
b1 e
b1 P
b11111 h
b1 I
b1 L
b1 V
b1 W
b11100000 C
b1111100 &
b1111100 H
b1111100 d
b1111100 >
b10100001111110 ?
b1111100 K
b11100 9
b11100 X
b1 3
b1 ^
b11111 =
b11111 [
b1 M
b1 U
b1111111 N
b1111100 2
b11100 ;
b1 4
b1 ]
b11111 6
b11111 Z
b1111111 @
b111111100000010000000000000 1
b1111111 A
b111111100000010111000100011 !
b111111100000010111000100011 B
b111111100000010111000100011 c
b11011100 "
b11011100 Q
b11011100 b
b110010 -
1'
#605000
0'
#610000
b0 $
b0 F
b0 e
b0 P
b0 I
b0 h
b0 #
b0 E
b0 f
b0 L
b0 V
b0 W
b0 J
b11100100 C
b0 &
b0 H
b0 d
b0 >
b0 ?
b0 K
b0 R
b0 9
b0 X
b1 O
b1 S
b0 3
b0 ^
b0 =
b0 [
b0 M
b0 U
b0 N
b0 2
b0 <
b0 ;
b0 D
b0 4
b0 ]
b0 6
b0 Z
b0 @
b0 1
b0 A
b0 !
b0 B
b0 c
b110011 -
b0 %
b0 G
b0 g
b11100000 "
b11100000 Q
b11100000 b
1'
#615000
0'
#620000
b11101000 C
b11100100 "
b11100100 Q
b11100100 b
b110100 -
1'
#625000
0'
#630000
b11101100 C
b110101 -
b11101000 "
b11101000 Q
b11101000 b
1'
#635000
0'
#640000
b11110000 C
b11101100 "
b11101100 Q
b11101100 b
b110110 -
1'
#645000
0'
#650000
b11110100 C
b110111 -
b11110000 "
b11110000 Q
b11110000 b
1'
#655000
0'
#660000
b11111000 C
b11110100 "
b11110100 Q
b11110100 b
b111000 -
1'
#665000
0'
#670000
b11111100 C
b111001 -
b11111000 "
b11111000 Q
b11111000 b
1'
#675000
0'
#680000
b100000000 C
b11111100 "
b11111100 Q
b11111100 b
b111010 -
1'
#685000
0'
#690000
b100000100 C
b111011 -
b100000000 "
b100000000 Q
b100000000 b
1'
#695000
0'
#700000
b100001000 C
b100000100 "
b100000100 Q
b100000100 b
b111100 -
1'
#705000
0'
#710000
b100001100 C
b111101 -
b100001000 "
b100001000 Q
b100001000 b
1'
#715000
0'
#720000
b100010000 C
b100001100 "
b100001100 Q
b100001100 b
b111110 -
1'
#725000
0'
#730000
b100010100 C
b111111 -
b100010000 "
b100010000 Q
b100010000 b
1'
#735000
0'
#740000
b100011000 C
b100010100 "
b100010100 Q
b100010100 b
b1000000 -
1'
#745000
0'
#750000
b100011100 C
b1000001 -
b100011000 "
b100011000 Q
b100011000 b
1'
#755000
0'
#760000
b100100000 C
b100011100 "
b100011100 Q
b100011100 b
b1000010 -
1'
#765000
0'
#770000
b100100100 C
b1000011 -
b100100000 "
b100100000 Q
b100100000 b
1'
#775000
0'
#780000
b100101000 C
b100100100 "
b100100100 Q
b100100100 b
b1000100 -
1'
#785000
0'
#790000
b100101100 C
b1000101 -
b100101000 "
b100101000 Q
b100101000 b
1'
#795000
0'
#800000
b100110000 C
b100101100 "
b100101100 Q
b100101100 b
b1000110 -
1'
#805000
0'
#810000
b100110100 C
b1000111 -
b100110000 "
b100110000 Q
b100110000 b
1'
#815000
0'
#820000
b100111000 C
b100110100 "
b100110100 Q
b100110100 b
b1001000 -
1'
#825000
0'
#830000
b100111100 C
b1001001 -
b100111000 "
b100111000 Q
b100111000 b
1'
#835000
0'
#840000
b101000000 C
b100111100 "
b100111100 Q
b100111100 b
b1001010 -
1'
#845000
0'
#850000
b101000100 C
b1001011 -
b101000000 "
b101000000 Q
b101000000 b
1'
#855000
0'
#860000
b101001000 C
b101000100 "
b101000100 Q
b101000100 b
b1001100 -
1'
#865000
0'
#870000
b101001100 C
b1001101 -
b101001000 "
b101001000 Q
b101001000 b
1'
#875000
0'
#880000
b101010000 C
b101001100 "
b101001100 Q
b101001100 b
b1001110 -
1'
#885000
0'
#890000
b101010100 C
b1001111 -
b101010000 "
b101010000 Q
b101010000 b
1'
#895000
0'
#900000
b101011000 C
b101010100 "
b101010100 Q
b101010100 b
b1010000 -
1'
#905000
0'
#910000
b101011100 C
b1010001 -
b101011000 "
b101011000 Q
b101011000 b
1'
#915000
0'
#920000
b101100000 C
b101011100 "
b101011100 Q
b101011100 b
b1010010 -
1'
#925000
0'
#930000
b101100100 C
b1010011 -
b101100000 "
b101100000 Q
b101100000 b
1'
#935000
0'
#940000
b101101000 C
b101100100 "
b101100100 Q
b101100100 b
b1010100 -
1'
#945000
0'
#950000
b101101100 C
b1010101 -
b101101000 "
b101101000 Q
b101101000 b
1'
#955000
0'
#960000
b101110000 C
b101101100 "
b101101100 Q
b101101100 b
b1010110 -
1'
#965000
0'
#970000
b101110100 C
b1010111 -
b101110000 "
b101110000 Q
b101110000 b
1'
#975000
0'
#980000
b101111000 C
b101110100 "
b101110100 Q
b101110100 b
b1011000 -
1'
#985000
0'
#990000
b101111100 C
b1011001 -
b101111000 "
b101111000 Q
b101111000 b
1'
#995000
0'
#1000000
b110000000 C
b101111100 "
b101111100 Q
b101111100 b
b1011010 -
1'
#1005000
0'
#1010000
b110000100 C
b1011011 -
b110000000 "
b110000000 Q
b110000000 b
1'
#1015000
0'
#1020000
b110001000 C
b110000100 "
b110000100 Q
b110000100 b
b1011100 -
1'
#1025000
0'
#1030000
b110001100 C
b1011101 -
b110001000 "
b110001000 Q
b110001000 b
1'
#1035000
0'
#1040000
b110010000 C
b110001100 "
b110001100 Q
b110001100 b
b1011110 -
1'
#1045000
0'
#1050000
b110010100 C
b1011111 -
b110010000 "
b110010000 Q
b110010000 b
1'
#1055000
0'
#1060000
b110011000 C
b110010100 "
b110010100 Q
b110010100 b
b1100000 -
1'
#1065000
0'
#1070000
b110011100 C
b1100001 -
b110011000 "
b110011000 Q
b110011000 b
1'
#1075000
0'
#1080000
b110100000 C
b110011100 "
b110011100 Q
b110011100 b
b1100010 -
1'
#1085000
0'
#1090000
b110100100 C
b1100011 -
b110100000 "
b110100000 Q
b110100000 b
1'
#1095000
0'
#1100000
b110101000 C
b110100100 "
b110100100 Q
b110100100 b
b1100100 -
1'
#1105000
0'
#1110000
b110101100 C
b1100101 -
b110101000 "
b110101000 Q
b110101000 b
1'
