a4 - Load Store Operations/cpu_tb.vcd
$date
	Sun Oct 18 00:08:45 2020
$end
$version
	Icarus Verilog
$end
$timescale
	1ps
$end
$scope module cpu_tb $end
$var wire 32 ! idata [31:0] $end
$var wire 32 " iaddr [31:0] $end
$var wire 4 # dwe [3:0] $end
$var wire 32 $ dwdata [31:0] $end
$var wire 32 % drdata [31:0] $end
$var wire 32 & daddr [31:0] $end
$var reg 1 ' clk $end
$var reg 32 ( dtmp [31:0] $end
$var reg 32 ) exp_reg [31:0] $end
$var reg 1 * reset $end
$var integer 32 + exp_file [31:0] $end
$var integer 32 , fail [31:0] $end
$var integer 32 - i [31:0] $end
$var integer 32 . log_file [31:0] $end
$var integer 32 / s [31:0] $end
$scope module u1 $end
$var wire 32 0 alu_in1 [31:0] $end
$var wire 1 ' clk $end
$var wire 1 * reset $end
$var wire 12 1 s_offset [11:0] $end
$var wire 5 2 rs2 [4:0] $end
$var wire 5 3 rs1 [4:0] $end
$var wire 5 4 rd [4:0] $end
$var wire 7 5 opcode [6:0] $end
$var wire 12 6 offset [11:0] $end
$var wire 32 7 mem_addr [31:0] $end
$var wire 12 8 immediate [11:0] $end
$var wire 32 9 idata [31:0] $end
$var wire 3 : func3 [2:0] $end
$var wire 4 ; dwe [3:0] $end
$var wire 32 < dwdata [31:0] $end
$var wire 32 = drdata [31:0] $end
$var wire 32 > daddr [31:0] $end
$var wire 32 ? buff_in [31:0] $end
$var wire 32 @ alu_out [31:0] $end
$var wire 32 A alu_in2 [31:0] $end
$var wire 12 B alu_imm [11:0] $end
$var reg 6 C alu_opcode [5:0] $end
$var reg 32 D buff_out [31:0] $end
$var reg 32 E iaddr [31:0] $end
$var reg 5 F opflag [4:0] $end
$var integer 32 G i [31:0] $end
$scope module i1 $end
$var wire 6 H op [5:0] $end
$var wire 32 I rv1 [31:0] $end
$var wire 32 J rv2 [31:0] $end
$var wire 32 K rvout [31:0] $end
$var reg 32 L alu_out [31:0] $end
$upscope $end
$upscope $end
$scope module u2 $end
$var wire 32 M iaddr [31:0] $end
$var wire 32 N idata [31:0] $end
$upscope $end
$scope module u3 $end
$var wire 1 ' clk $end
$var wire 32 O daddr [31:0] $end
$var wire 32 P dwdata [31:0] $end
$var wire 4 Q dwe [3:0] $end
$var wire 32 R drdata [31:0] $end
$var wire 30 S a [29:0] $end
$upscope $end
$upscope $end
$enddefinitions $end
#0
$dumpvars
b1000000 S
b0 R
b0 Q
b0 P
b100000001 O
b10000001100001110000010010011 N
b0 M
b100000011 L
b100000011 K
b100000011 J
b0 I
b100 H
b100000 G
b10 F
b0 E
b0 D
b100 C
b100000011 B
b100000011 A
b100000011 @
b0 ?
b100000001 >
b0 =
b0 <
b0 ;
b110 :
b10000001100001110000010010011 9
b100000011 8
b11 7
b100000001 6
b10011 5
b1 4
b1 3
b11 2
b100000001 1
b0 0
bx /
bx .
bx -
bx ,
bx +
1*
bx )
bx (
1'
b100000001 &
b0 %
b0 $
b0 #
b0 "
b10000001100001110000010010011 !
$end
#5000
0'
#10000
1'
#15000
0'
#20000
1'
#25000
0'
#30000
1'
#35000
0'
#40000
1'
#45000
0'
#50000
1'
#55000
0'
#60000
1'
#65000
0'
#70000
1'
#75000
0'
#80000
1'
#85000
0'
#90000
1'
#95000
0'
#100000
b100000011 $
b100000011 <
b100000011 P
b100000011 D
b100000011 ?
b11 #
b11 ;
b11 Q
b0 S
b0 @
b0 K
b0 L
b100000011 A
b100000011 J
b0 &
b0 >
b0 O
b0 6
b1001 F
b1000 C
b1000 H
b1 7
b1 B
b0 1
b100011 5
b0 4
b1 :
b0 3
b1 2
b1 8
b100000001000000100011 !
b100000001000000100011 9
b100000001000000100011 N
b100 "
b100 E
b100 M
b0 -
1'
b10000000000000000000000000000100 +
b10000000000000000000000000000011 .
0*
#105000
0'
#110000
b1 #
b1 ;
b1 Q
b10 S
b100000011 @
b100000011 K
b100000011 L
b1000 &
b1000 >
b1000 O
b1000 6
b1 C
b1 H
b1000 1
b1000 4
b0 :
b100000000010000100011 !
b100000000010000100011 9
b100000000010000100011 N
b1000 "
b1000 E
b1000 M
b1 -
b0 %
b0 =
b0 R
1'
#115000
0'
#120000
b11 $
b11 <
b11 P
b11 D
b0 S
b0 #
b0 ;
b0 Q
b0 @
b0 K
b0 L
b100000011 ?
b0 &
b0 >
b0 O
b0 6
b1000 F
b0 A
b0 J
b10 7
b0 B
b10 1
b11 5
b10 4
b0 2
b0 8
b100000011 !
b100000011 9
b100000011 N
b1100 "
b1100 E
b1100 M
b100000011 %
b100000011 =
b100000011 R
b10 -
1'
#125000
0'
#130000
b11 ?
b11 %
b11 =
b11 R
b10 S
b100 7
b110 C
b110 H
b1000 B
b1000 &
b1000 >
b1000 O
b1000 6
b100 1
b100 4
b10 :
b1000 2
b1000 8
b100000000010001000000011 !
b100000000010001000000011 9
b100000000010001000000011 N
b10000 "
b10000 E
b10000 M
b11 -
1'
#135000
0'
#140000
b11 A
b11 J
b0 D
b0 ?
b0 @
b0 K
b0 L
b0 $
b0 <
b0 P
b0 %
b0 =
b0 R
b100000001 S
b1 F
b100 7
b10 C
b10 H
b10000000100 B
b10000000011 6
b10000000011 1
b110011 5
b11 4
b0 :
b11 0
b11 I
b10000000110 &
b10000000110 >
b10000000110 O
b10 3
b100 2
b10000000100 8
b1000000010000010000000110110011 !
b1000000010000010000000110110011 9
b1000000010000010000000110110011 N
b10100 "
b10100 E
b10100 M
b100 -
1'
#145000
0'
#150000
b100000011 $
b100000011 <
b100000011 P
b100000011 D
b11 %
b11 =
b11 R
b100000011 ?
b1111 #
b1111 ;
b1111 Q
b1000 6
b1001 F
b10 S
b100000011 A
b100000011 J
b1 7
b1 B
b1 @
b1 K
b1 L
b1000 1
b100011 5
b1000 4
b10 :
b0 0
b0 I
b1000 &
b1000 >
b1000 O
b0 3
b1 2
b1 8
b110 C
b110 H
b100000010010000100011 !
b100000010010000100011 9
b100000010010000100011 N
b11000 "
b11000 E
b11000 M
b101 -
1'
#155000
0'
#160000
b0 S
b0 #
b0 ;
b0 Q
b0 @
b0 K
b0 L
b0 &
b0 >
b0 O
b0 6
b1000 F
b1000 C
b1000 H
b0 A
b0 J
b10 7
b0 B
b10 1
b11 5
b10 4
b1 :
b0 2
b0 8
b1000100000011 !
b1000100000011 9
b1000100000011 N
b11100 "
b11100 E
b11100 M
b100000011 %
b100000011 =
b100000011 R
b110 -
1'
#165000
0'
#170000
b10 S
b100 7
b110 C
b110 H
b1000 B
b1000 &
b1000 >
b1000 O
b1000 6
b100 1
b100 4
b10 :
b1000 2
b1000 8
b100000000010001000000011 !
b100000000010001000000011 9
b100000000010001000000011 N
b100000 "
b100000 E
b100000 M
b111 -
1'
#175000
0'
#180000
b0 D
b0 ?
b0 @
b0 K
b0 L
b0 $
b0 <
b0 P
b1 F
b100 7
b10 C
b10 H
b0 %
b0 =
b0 R
b101000010 S
b100000011 A
b100000011 J
b10000000100 B
b10000000101 6
b10000000101 1
b110011 5
b101 4
b0 :
b100000011 0
b100000011 I
b10100001000 &
b10100001000 >
b10100001000 O
b10 3
b100 2
b10000000100 8
b1000000010000010000001010110011 !
b1000000010000010000001010110011 9
b1000000010000010000001010110011 N
b100100 "
b100100 E
b100100 M
b1000 -
1'
#185000
0'
#190000
b100000011 %
b100000011 =
b100000011 R
b1010 6
b10 S
b0 A
b0 J
b101 7
b101 B
b0 @
b0 K
b0 L
b1010 1
b1010 4
b0 0
b0 I
b1010 &
b1010 >
b1010 O
b11 3
b101 2
b101 8
b1 C
b1 H
b10100011000010100110011 !
b10100011000010100110011 9
b10100011000010100110011 N
b101000 "
b101000 E
b101000 M
b1001 -
1'
#195000
0'
#200000
b11 $
b11 <
b11 P
b11 D
b100000011 ?
b0 S
b0 &
b0 >
b0 O
b0 6
b0 F
b0 7
b0 B
b0 1
b0 5
b0 4
b0 3
b0 2
b0 8
b0 !
b0 9
b0 N
b101100 "
b101100 E
b101100 M
b1010 -
1'
#205000
0'
#210000
b110000 "
b110000 E
b110000 M
b1011 -
1'
#215000
0'
#220000
b110100 "
b110100 E
b110100 M
b1100 -
1'
#225000
0'
#230000
b111000 "
b111000 E
b111000 M
b1101 -
1'
#235000
0'
#240000
b111100 "
b111100 E
b111100 M
b1110 -
1'
#245000
0'
#250000
b1000000 "
b1000000 E
b1000000 M
b1111 -
1'
#255000
0'
#260000
b1000100 "
b1000100 E
b1000100 M
b10000 -
1'
#265000
0'
#270000
b0 $
b0 <
b0 P
b0 D
b0 ?
b1111 #
b1111 ;
b1111 Q
b1001 F
b110 C
b110 H
b100011 5
b10 :
b10000000100011 !
b10000000100011 9
b10000000100011 N
b1001000 "
b1001000 E
b1001000 M
b10001 -
1'
#275000
0'
#280000
b100000011 $
b100000011 <
b100000011 P
b100000011 D
b1 S
b1 @
b1 K
b1 L
b100000011 ?
b100 &
b100 >
b100 O
b100 6
b100000011 A
b100000011 J
b1 7
b1 B
b100 1
b100 4
b1 2
b1 8
b100000010001000100011 !
b100000010001000100011 9
b100000010001000100011 N
b1001100 "
b1001100 E
b1001100 M
b0 %
b0 =
b0 R
b10010 -
1'
#285000
0'
#290000
b10 S
b1000 &
b1000 >
b1000 O
b1000 6
b10 7
b10 B
b1000 1
b1000 4
b10 2
b10 8
b1000000010010000100011 !
b1000000010010000100011 9
b1000000010010000100011 N
b1010000 "
b1010000 E
b1010000 M
b10011 -
b100000011 %
b100000011 =
b100000011 R
1'
#295000
0'
#300000
b0 $
b0 <
b0 P
b0 D
b0 %
b0 =
b0 R
b11 S
b0 @
b0 K
b0 L
b0 ?
b1100 &
b1100 >
b1100 O
b1100 6
b0 A
b0 J
b11 7
b11 B
b1100 1
b1100 4
b11 2
b11 8
b1100000010011000100011 !
b1100000010011000100011 9
b1100000010011000100011 N
b1010100 "
b1010100 E
b1010100 M
b10100 -
1'
#305000
0'
#310000
b100000011 $
b100000011 <
b100000011 P
b100000011 D
b100 S
b1 @
b1 K
b1 L
b100000011 ?
b10000 &
b10000 >
b10000 O
b10000 6
b100000011 A
b100000011 J
b100 7
b100 B
b10000 1
b10000 4
b100 2
b100 8
b10000000010100000100011 !
b10000000010100000100011 9
b10000000010100000100011 N
b1011000 "
b1011000 E
b1011000 M
b10101 -
1'
#315000
0'
#320000
b0 $
b0 <
b0 P
b0 D
b101 S
b0 @
b0 K
b0 L
b0 ?
b10100 &
b10100 >
b10100 O
b10100 6
b0 A
b0 J
b101 7
b101 B
b10100 1
b10100 4
b101 2
b101 8
b10100000010101000100011 !
b10100000010101000100011 9
b10100000010101000100011 N
b1011100 "
b1011100 E
b1011100 M
b0 %
b0 =
b0 R
b10110 -
1'
#325000
0'
#330000
b110 S
b11000 &
b11000 >
b11000 O
b11000 6
b110 7
b110 B
b11000 1
b11000 4
b110 2
b110 8
b11000000010110000100011 !
b11000000010110000100011 9
b11000000010110000100011 N
b1100000 "
b1100000 E
b1100000 M
b10111 -
1'
#335000
0'
#340000
b111 S
b11100 &
b11100 >
b11100 O
b11100 6
b111 7
b111 B
b11100 1
b11100 4
b111 2
b111 8
b11100000010111000100011 !
b11100000010111000100011 9
b11100000010111000100011 N
b1100100 "
b1100100 E
b1100100 M
b11000 -
1'
#345000
0'
#350000
b1000 S
b100000 &
b100000 >
b100000 O
b100000 6
b1000 7
b101000 B
b100000 1
b0 4
b1000 2
b101000 8
b10100000000010000000100011 !
b10100000000010000000100011 9
b10100000000010000000100011 N
b1101000 "
b1101000 E
b1101000 M
b11001 -
1'
#355000
0'
#360000
b1001 S
b100100 &
b100100 >
b100100 O
b100100 6
b1001 7
b101001 B
b100100 1
b100 4
b1001 2
b101001 8
b10100100000010001000100011 !
b10100100000010001000100011 9
b10100100000010001000100011 N
b1101100 "
b1101100 E
b1101100 M
b11010 -
1'
#365000
0'
#370000
b1010 S
b101000 &
b101000 >
b101000 O
b101000 6
b1010 7
b101010 B
b101000 1
b1000 4
b1010 2
b101010 8
b10101000000010010000100011 !
b10101000000010010000100011 9
b10101000000010010000100011 N
b1110000 "
b1110000 E
b1110000 M
b11011 -
1'
#375000
0'
#380000
b1011 S
b101100 &
b101100 >
b101100 O
b101100 6
b1011 7
b101011 B
b101100 1
b1100 4
b1011 2
b101011 8
b10101100000010011000100011 !
b10101100000010011000100011 9
b10101100000010011000100011 N
b1110100 "
b1110100 E
b1110100 M
b11100 -
1'
#385000
0'
#390000
b1100 S
b110000 &
b110000 >
b110000 O
b110000 6
b1100 7
b101100 B
b110000 1
b10000 4
b1100 2
b101100 8
b10110000000010100000100011 !
b10110000000010100000100011 9
b10110000000010100000100011 N
b1111000 "
b1111000 E
b1111000 M
b11101 -
1'
#395000
0'
#400000
b1101 S
b110100 &
b110100 >
b110100 O
b110100 6
b1101 7
b101101 B
b110100 1
b10100 4
b1101 2
b101101 8
b10110100000010101000100011 !
b10110100000010101000100011 9
b10110100000010101000100011 N
b1111100 "
b1111100 E
b1111100 M
b11110 -
1'
#405000
0'
#410000
b1110 S
b111000 &
b111000 >
b111000 O
b111000 6
b1110 7
b101110 B
b111000 1
b11000 4
b1110 2
b101110 8
b10111000000010110000100011 !
b10111000000010110000100011 9
b10111000000010110000100011 N
b10000000 "
b10000000 E
b10000000 M
b11111 -
1'
#415000
0'
#420000
b1111 S
b111100 &
b111100 >
b111100 O
b111100 6
b1111 7
b101111 B
b111100 1
b11100 4
b1111 2
b101111 8
b10111100000010111000100011 !
b10111100000010111000100011 9
b10111100000010111000100011 N
b10000100 "
b10000100 E
b10000100 M
b100000 -
1'
#425000
0'
#430000
b10000 S
b1000000 &
b1000000 >
b1000000 O
b1000000 6
b10000 7
b1010000 B
b1000000 1
b0 4
b10000 2
b1010000 8
b101000000000010000000100011 !
b101000000000010000000100011 9
b101000000000010000000100011 N
b10001000 "
b10001000 E
b10001000 M
b100001 -
1'
#435000
0'
#440000
b10001 S
b1000100 &
b1000100 >
b1000100 O
b1000100 6
b10001 7
b1010001 B
b1000100 1
b100 4
b10001 2
b1010001 8
b101000100000010001000100011 !
b101000100000010001000100011 9
b101000100000010001000100011 N
b10001100 "
b10001100 E
b10001100 M
b100010 -
1'
#445000
0'
#450000
b10010 S
b1001000 &
b1001000 >
b1001000 O
b1001000 6
b10010 7
b1010010 B
b1001000 1
b1000 4
b10010 2
b1010010 8
b101001000000010010000100011 !
b101001000000010010000100011 9
b101001000000010010000100011 N
b10010000 "
b10010000 E
b10010000 M
b100011 -
1'
#455000
0'
#460000
b10011 S
b1001100 &
b1001100 >
b1001100 O
b1001100 6
b10011 7
b1010011 B
b1001100 1
b1100 4
b10011 2
b1010011 8
b101001100000010011000100011 !
b101001100000010011000100011 9
b101001100000010011000100011 N
b10010100 "
b10010100 E
b10010100 M
b100100 -
1'
#465000
0'
#470000
b10100 S
b1010000 &
b1010000 >
b1010000 O
b1010000 6
b10100 7
b1010100 B
b1010000 1
b10000 4
b10100 2
b1010100 8
b101010000000010100000100011 !
b101010000000010100000100011 9
b101010000000010100000100011 N
b10011000 "
b10011000 E
b10011000 M
b100101 -
1'
#475000
0'
#480000
b10101 S
b1010100 &
b1010100 >
b1010100 O
b1010100 6
b10101 7
b1010101 B
b1010100 1
b10100 4
b10101 2
b1010101 8
b101010100000010101000100011 !
b101010100000010101000100011 9
b101010100000010101000100011 N
b10011100 "
b10011100 E
b10011100 M
b100110 -
1'
#485000
0'
#490000
b10110 S
b1011000 &
b1011000 >
b1011000 O
b1011000 6
b10110 7
b1010110 B
b1011000 1
b11000 4
b10110 2
b1010110 8
b101011000000010110000100011 !
b101011000000010110000100011 9
b101011000000010110000100011 N
b10100000 "
b10100000 E
b10100000 M
b100111 -
1'
#495000
0'
#500000
b10111 S
b1011100 &
b1011100 >
b1011100 O
b1011100 6
b10111 7
b1010111 B
b1011100 1
b11100 4
b10111 2
b1010111 8
b101011100000010111000100011 !
b101011100000010111000100011 9
b101011100000010111000100011 N
b10100100 "
b10100100 E
b10100100 M
b101000 -
1'
#505000
0'
#510000
b11000 S
b1100000 &
b1100000 >
b1100000 O
b1100000 6
b11000 7
b1111000 B
b1100000 1
b0 4
b11000 2
b1111000 8
b111100000000010000000100011 !
b111100000000010000000100011 9
b111100000000010000000100011 N
b10101000 "
b10101000 E
b10101000 M
b101001 -
1'
#515000
0'
#520000
b11001 S
b1100100 &
b1100100 >
b1100100 O
b1100100 6
b11001 7
b1111001 B
b1100100 1
b100 4
b11001 2
b1111001 8
b111100100000010001000100011 !
b111100100000010001000100011 9
b111100100000010001000100011 N
b10101100 "
b10101100 E
b10101100 M
b101010 -
1'
#525000
0'
#530000
b11010 S
b1101000 &
b1101000 >
b1101000 O
b1101000 6
b11010 7
b1111010 B
b1101000 1
b1000 4
b11010 2
b1111010 8
b111101000000010010000100011 !
b111101000000010010000100011 9
b111101000000010010000100011 N
b10110000 "
b10110000 E
b10110000 M
b101011 -
1'
#535000
0'
#540000
b11011 S
b1101100 &
b1101100 >
b1101100 O
b1101100 6
b11011 7
b1111011 B
b1101100 1
b1100 4
b11011 2
b1111011 8
b111101100000010011000100011 !
b111101100000010011000100011 9
b111101100000010011000100011 N
b10110100 "
b10110100 E
b10110100 M
b101100 -
1'
#545000
0'
#550000
b11100 S
b1110000 &
b1110000 >
b1110000 O
b1110000 6
b11100 7
b1111100 B
b1110000 1
b10000 4
b11100 2
b1111100 8
b111110000000010100000100011 !
b111110000000010100000100011 9
b111110000000010100000100011 N
b10111000 "
b10111000 E
b10111000 M
b101101 -
1'
#555000
0'
#560000
b11101 S
b1110100 &
b1110100 >
b1110100 O
b1110100 6
b11101 7
b1111101 B
b1110100 1
b10100 4
b11101 2
b1111101 8
b111110100000010101000100011 !
b111110100000010101000100011 9
b111110100000010101000100011 N
b10111100 "
b10111100 E
b10111100 M
b101110 -
1'
#565000
0'
#570000
b11110 S
b1111000 &
b1111000 >
b1111000 O
b1111000 6
b11110 7
b1111110 B
b1111000 1
b11000 4
b11110 2
b1111110 8
b111111000000010110000100011 !
b111111000000010110000100011 9
b111111000000010110000100011 N
b11000000 "
b11000000 E
b11000000 M
b101111 -
1'
#575000
0'
#580000
b11111 S
b1111100 &
b1111100 >
b1111100 O
b1111100 6
b11111 7
b1111111 B
b1111100 1
b11100 4
b11111 2
b1111111 8
b111111100000010111000100011 !
b111111100000010111000100011 9
b111111100000010111000100011 N
b11000100 "
b11000100 E
b11000100 M
b110000 -
1'
#585000
0'
#590000
b0 S
b0 #
b0 ;
b0 Q
b0 &
b0 >
b0 O
b0 6
b0 F
b1 C
b1 H
b0 7
b0 B
b0 1
b0 5
b0 4
b0 :
b0 2
b0 8
b0 !
b0 9
b0 N
b11001000 "
b11001000 E
b11001000 M
b110001 -
1'
#595000
0'
#600000
b11001100 "
b11001100 E
b11001100 M
b110010 -
1'
#605000
0'
#610000
b11010000 "
b11010000 E
b11010000 M
b110011 -
1'
#615000
0'
#620000
b11010100 "
b11010100 E
b11010100 M
b110100 -
1'
#625000
0'
#630000
b11011000 "
b11011000 E
b11011000 M
b110101 -
1'
#635000
0'
#640000
b11011100 "
b11011100 E
b11011100 M
b110110 -
1'
#645000
0'
#650000
b11100000 "
b11100000 E
b11100000 M
b110111 -
1'
#655000
0'
#660000
b11100100 "
b11100100 E
b11100100 M
b111000 -
1'
#665000
0'
#670000
b11101000 "
b11101000 E
b11101000 M
b111001 -
1'
#675000
0'
#680000
b11101100 "
b11101100 E
b11101100 M
b111010 -
1'
#685000
0'
#690000
b11110000 "
b11110000 E
b11110000 M
b111011 -
1'
#695000
0'
#700000
b11110100 "
b11110100 E
b11110100 M
b111100 -
1'
#705000
0'
#710000
b11111000 "
b11111000 E
b11111000 M
b111101 -
1'
#715000
0'
#720000
b11111100 "
b11111100 E
b11111100 M
b111110 -
1'
#725000
0'
#730000
b100000000 "
b100000000 E
b100000000 M
b111111 -
1'
#735000
0'
#740000
b100000100 "
b100000100 E
b100000100 M
b1000000 -
1'
#745000
0'
#750000
b100001000 "
b100001000 E
b100001000 M
b1000001 -
1'
#755000
0'
#760000
b100001100 "
b100001100 E
b100001100 M
b1000010 -
1'
#765000
0'
#770000
b100010000 "
b100010000 E
b100010000 M
b1000011 -
1'
#775000
0'
#780000
b100010100 "
b100010100 E
b100010100 M
b1000100 -
1'
#785000
0'
#790000
b100011000 "
b100011000 E
b100011000 M
b1000101 -
1'
#795000
0'
#800000
b100011100 "
b100011100 E
b100011100 M
b1000110 -
1'
#805000
0'
#810000
b100100000 "
b100100000 E
b100100000 M
b1000111 -
1'
#815000
0'
#820000
b100100100 "
b100100100 E
b100100100 M
b1001000 -
1'
#825000
0'
#830000
b100101000 "
b100101000 E
b100101000 M
b1001001 -
1'
#835000
0'
#840000
b100101100 "
b100101100 E
b100101100 M
b1001010 -
1'
#845000
0'
#850000
b100110000 "
b100110000 E
b100110000 M
b1001011 -
1'
#855000
0'
#860000
b100110100 "
b100110100 E
b100110100 M
b1001100 -
1'
#865000
0'
#870000
b100111000 "
b100111000 E
b100111000 M
b1001101 -
1'
#875000
0'
#880000
b100111100 "
b100111100 E
b100111100 M
b1001110 -
1'
#885000
0'
#890000
b101000000 "
b101000000 E
b101000000 M
b1001111 -
1'
#895000
0'
#900000
b101000100 "
b101000100 E
b101000100 M
b1010000 -
1'
#905000
0'
#910000
b101001000 "
b101001000 E
b101001000 M
b1010001 -
1'
#915000
0'
#920000
b101001100 "
b101001100 E
b101001100 M
b1010010 -
1'
#925000
0'
#930000
b101010000 "
b101010000 E
b101010000 M
b1010011 -
1'
#935000
0'
#940000
b101010100 "
b101010100 E
b101010100 M
b1010100 -
1'
#945000
0'
#950000
b101011000 "
b101011000 E
b101011000 M
b1010101 -
1'
#955000
0'
#960000
b101011100 "
b101011100 E
b101011100 M
b1010110 -
1'
#965000
0'
#970000
b101100000 "
b101100000 E
b101100000 M
b1010111 -
1'
#975000
0'
#980000
b101100100 "
b101100100 E
b101100100 M
b1011000 -
1'
#985000
0'
#990000
b101101000 "
b101101000 E
b101101000 M
b1011001 -
1'
#995000
0'
#1000000
b101101100 "
b101101100 E
b101101100 M
b1011010 -
1'
#1005000
0'
#1010000
b101110000 "
b101110000 E
b101110000 M
b1011011 -
1'
#1015000
0'
#1020000
b101110100 "
b101110100 E
b101110100 M
b1011100 -
1'
#1025000
0'
#1030000
b101111000 "
b101111000 E
b101111000 M
b1011101 -
1'
#1035000
0'
#1040000
b101111100 "
b101111100 E
b101111100 M
b1011110 -
1'
#1045000
0'
#1050000
b110000000 "
b110000000 E
b110000000 M
b1011111 -
1'
#1055000
0'
#1060000
b110000100 "
b110000100 E
b110000100 M
b1100000 -
1'
#1065000
0'
#1070000
b110001000 "
b110001000 E
b110001000 M
b1100001 -
1'
#1075000
0'
#1080000
b110001100 "
b110001100 E
b110001100 M
b1100010 -
1'
#1085000
0'
#1090000
b110010000 "
b110010000 E
b110010000 M
b1100011 -
1'
#1095000
0'
#1100000
b110010100 "
b110010100 E
b110010100 M
b1100100 -
1'
#1105000
0'
#1110000
b110011000 "
b110011000 E
b110011000 M
b1100101 -
1'
#1115000
0'
#1120000
b110011100 "
b110011100 E
b110011100 M
b1100110 -
1'
#1125000
0'
#1130000
b110100000 "
b110100000 E
b110100000 M
b1100111 -
1'
#1135000
0'
#1140000
b110100100 "
b110100100 E
b110100100 M
b1101000 -
1'
#1145000
0'
#1150000
b110101000 "
b110101000 E
b110101000 M
b1101001 -
1'
#1155000
0'
#1160000
b110101100 "
b110101100 E
b110101100 M
b1101010 -
1'
#1165000
0'
#1170000
b110110000 "
b110110000 E
b110110000 M
b1101011 -
1'
#1175000
0'
#1180000
b110110100 "
b110110100 E
b110110100 M
b1101100 -
1'
#1185000
0'
#1190000
b110111000 "
b110111000 E
b110111000 M
b1101101 -
1'
#1195000
0'
#1200000
b110111100 "
b110111100 E
b110111100 M
b1101110 -
1'
#1205000
0'
#1210000
b111000000 "
b111000000 E
b111000000 M
b1101111 -
1'
#1215000
0'
#1220000
b111000100 "
b111000100 E
b111000100 M
b1110000 -
1'
#1225000
0'
#1230000
b111001000 "
b111001000 E
b111001000 M
b1110001 -
1'
#1235000
0'
#1240000
b111001100 "
b111001100 E
b111001100 M
b1110010 -
1'
#1245000
0'
#1250000
b111010000 "
b111010000 E
b111010000 M
b1110011 -
1'
#1255000
0'
#1260000
b111010100 "
b111010100 E
b111010100 M
b1110100 -
1'
#1265000
0'
#1270000
b111011000 "
b111011000 E
b111011000 M
b1110101 -
1'
#1275000
0'
#1280000
b111011100 "
b111011100 E
b111011100 M
b1110110 -
1'
#1285000
0'
#1290000
b111100000 "
b111100000 E
b111100000 M
b1110111 -
1'
#1295000
0'
#1300000
b111100100 "
b111100100 E
b111100100 M
b1111000 -
1'
#1305000
0'
#1310000
b111101000 "
b111101000 E
b111101000 M
b1111001 -
1'
#1315000
0'
#1320000
b111101100 "
b111101100 E
b111101100 M
b1111010 -
1'
#1325000
0'
#1330000
b111110000 "
b111110000 E
b111110000 M
b1111011 -
1'
#1335000
0'
#1340000
b111110100 "
b111110100 E
b111110100 M
b1111100 -
1'
#1345000
0'
#1350000
b111111000 "
b111111000 E
b111111000 M
b1111101 -
1'
#1355000
0'
#1360000
b111111100 "
b111111100 E
b111111100 M
b1111110 -
1'
#1365000
0'
#1370000
b1000000000 "
b1000000000 E
b1000000000 M
b1111111 -
1'
#1375000
0'
#1380000
b1000000100 "
b1000000100 E
b1000000100 M
b10000000 -
1'
#1385000
0'
#1390000
b1000001000 "
b1000001000 E
b1000001000 M
b10000001 -
1'
#1395000
0'
#1400000
b1000001100 "
b1000001100 E
b1000001100 M
b10000010 -
1'
#1405000
0'
#1410000
b1000010000 "
b1000010000 E
b1000010000 M
b10000011 -
1'
#1415000
0'
#1420000
b1000010100 "
b1000010100 E
b1000010100 M
b10000100 -
1'
#1425000
0'
#1430000
b1000011000 "
b1000011000 E
b1000011000 M
b10000101 -
1'
#1435000
0'
#1440000
b1000011100 "
b1000011100 E
b1000011100 M
b10000110 -
1'
#1445000
0'
#1450000
b1000100000 "
b1000100000 E
b1000100000 M
b10000111 -
1'
#1455000
0'
#1460000
b1000100100 "
b1000100100 E
b1000100100 M
b10001000 -
1'
#1465000
0'
#1470000
b1000101000 "
b1000101000 E
b1000101000 M
b10001001 -
1'
#1475000
0'
#1480000
b1000101100 "
b1000101100 E
b1000101100 M
b10001010 -
1'
#1485000
0'
#1490000
b1000110000 "
b1000110000 E
b1000110000 M
b10001011 -
1'
#1495000
0'
#1500000
b1000110100 "
b1000110100 E
b1000110100 M
b10001100 -
1'
#1505000
0'
#1510000
b1000111000 "
b1000111000 E
b1000111000 M
b10001101 -
1'
#1515000
0'
#1520000
b1000111100 "
b1000111100 E
b1000111100 M
b10001110 -
1'
#1525000
0'
#1530000
b1001000000 "
b1001000000 E
b1001000000 M
b10001111 -
1'
#1535000
0'
#1540000
b1001000100 "
b1001000100 E
b1001000100 M
b10010000 -
1'
#1545000
0'
#1550000
b1001001000 "
b1001001000 E
b1001001000 M
b10010001 -
1'
#1555000
0'
#1560000
b1001001100 "
b1001001100 E
b1001001100 M
b10010010 -
1'
#1565000
0'
#1570000
b1001010000 "
b1001010000 E
b1001010000 M
b10010011 -
1'
#1575000
0'
#1580000
b1001010100 "
b1001010100 E
b1001010100 M
b10010100 -
1'
#1585000
0'
#1590000
b1001011000 "
b1001011000 E
b1001011000 M
b10010101 -
1'
#1595000
0'
#1600000
b1001011100 "
b1001011100 E
b1001011100 M
b10010110 -
1'
#1605000
0'
#1610000
b1001100000 "
b1001100000 E
b1001100000 M
b10010111 -
1'
#1615000
0'
#1620000
b1001100100 "
b1001100100 E
b1001100100 M
b10011000 -
1'
#1625000
0'
#1630000
b1001101000 "
b1001101000 E
b1001101000 M
b10011001 -
1'
#1635000
0'
#1640000
b1001101100 "
b1001101100 E
b1001101100 M
b10011010 -
1'
#1645000
0'
#1650000
b1001110000 "
b1001110000 E
b1001110000 M
b10011011 -
1'
#1655000
0'
#1660000
b1001110100 "
b1001110100 E
b1001110100 M
b10011100 -
1'
#1665000
0'
#1670000
b1001111000 "
b1001111000 E
b1001111000 M
b10011101 -
1'
#1675000
0'
#1680000
b1001111100 "
b1001111100 E
b1001111100 M
b10011110 -
1'
#1685000
0'
#1690000
b1010000000 "
b1010000000 E
b1010000000 M
b10011111 -
1'
#1695000
0'
#1700000
b1010000100 "
b1010000100 E
b1010000100 M
b10100000 -
1'
#1705000
0'
#1710000
b1010001000 "
b1010001000 E
b1010001000 M
b10100001 -
1'
#1715000
0'
#1720000
b1010001100 "
b1010001100 E
b1010001100 M
b10100010 -
1'
#1725000
0'
#1730000
b1010010000 "
b1010010000 E
b1010010000 M
b10100011 -
1'
#1735000
0'
#1740000
b1010010100 "
b1010010100 E
b1010010100 M
b10100100 -
1'
#1745000
0'
#1750000
b1010011000 "
b1010011000 E
b1010011000 M
b10100101 -
1'
#1755000
0'
#1760000
b1010011100 "
b1010011100 E
b1010011100 M
b10100110 -
1'
#1765000
0'
#1770000
b1010100000 "
b1010100000 E
b1010100000 M
b10100111 -
1'
#1775000
0'
#1780000
b1010100100 "
b1010100100 E
b1010100100 M
b10101000 -
1'
#1785000
0'
#1790000
b1010101000 "
b1010101000 E
b1010101000 M
b10101001 -
1'
#1795000
0'
#1800000
b1010101100 "
b1010101100 E
b1010101100 M
b10101010 -
1'
#1805000
0'
#1810000
b1010110000 "
b1010110000 E
b1010110000 M
b10101011 -
1'
#1815000
0'
#1820000
b1010110100 "
b1010110100 E
b1010110100 M
b10101100 -
1'
#1825000
0'
#1830000
b1010111000 "
b1010111000 E
b1010111000 M
b10101101 -
1'
#1835000
0'
#1840000
b1010111100 "
b1010111100 E
b1010111100 M
b10101110 -
1'
#1845000
0'
